0

1, 2, 14.101239534347412
0, 3, 15.090626283432526
0, 6, 17.98271637223999
0, 1, 13.098511958422721
2, 2, 14.101239534347412
2, 4, 16.067079151396957
8, 8, 19.851044441610295
10, 4, 16.067079151396957
1, 6, 17.98271637223999
11, 6, 17.98271637223999
8, 9, 20.768301478900245
10, 6, 17.98271637223999
11, 10, 21.674702907651554
6, 5, 17.030985910817538
1, 8, 19.851044441610295
9, 4, 16.067079151396957
8, 11, 22.570543852470085
11, 4, 16.067079151396957
7, 6, 17.98271637223999
10, 3, 15.090626283432524
3, 5, 17.030985910817538
9, 6, 17.98271637223999
11, 5, 17.030985910817538
2, 1, 13.098511958422721
0, 10, 21.674702907651554
6, 10, 21.674702907651554
0, 2, 14.101239534347412
2, 3, 15.090626283432524
4, 2, 14.101239534347412
8, 6, 17.98271637223999
5, 6, 17.98271637223999
5, 10, 21.674702907651554
11, 1, 13.098511958422721
9, 3, 15.090626283432524
0, 0, 12.08201612035231
0, 4, 16.067079151396957
8, 5, 17.030985910817538
2, 6, 17.98271637223999
6, 1, 13.098511958422721
1, 5, 17.030985910817538
6, 9, 20.768301478900245
9, 7, 18.922623499989385
10, 2, 14.101239534347412
9, 5, 17.030985910817538
5, 7, 18.922623499989385
2, 8, 19.851044441610295
7, 2, 14.101239534347412
11, 2, 14.101239534347412
1, 9, 20.768301478900245
4, 0, 12.082016120352309
11, 8, 19.851044441610295
4, 3, 15.090626283432524
1, 7, 18.922623499989385
0, 5, 17.030985910817538
3, 10, 21.674702907651554
7, 0, 12.082016120352309
5, 0, 12.082016120352309
7, 8, 19.851044441610295
7, 4, 16.067079151396957
4, 9, 20.768301478900245
4, 7, 18.922623499989385
3, 9, 20.768301478900245
8, 0, 12.082016120352309
4, 10, 21.674702907651554
7, 3, 15.090626283432524
2, 9, 20.768301478900245
9, 0, 12.082016120352309
3, 6, 17.98271637223999
3, 2, 14.101239534347412
0, 9, 20.768301478900245
6, 8, 19.851044441610295
1, 10, 21.674702907651554
11, 7, 18.922623499989385
9, 10, 21.674702907651554
11, 3, 15.090626283432526
9, 8, 19.851044441610295
5, 5, 17.030985910817538
2, 5, 17.030985910817538
9, 1, 13.098511958422721
9, 9, 20.768301478900245
4, 5, 17.030985910817538
11, 11, 22.570543852470085
10, 8, 19.851044441610295
3, 11, 22.570543852470085
6, 2, 14.101239534347412
4, 8, 19.851044441610295
8, 4, 16.067079151396957
6, 3, 15.090626283432524
3, 8, 19.851044441610295
5, 1, 13.098511958422721
10, 5, 17.030985910817538
6, 11, 22.570543852470085
2, 11, 22.570543852470085
1, 0, 12.082016120352309
4, 6, 17.98271637223999
1, 1, 13.098511958422721
5, 4, 16.067079151396957
9, 11, 22.570543852470085
11, 0, 12.08201612035231
8, 3, 15.090626283432524
10, 9, 20.768301478900245
7, 5, 17.030985910817538
3, 7, 18.922623499989385
3, 3, 15.090626283432524
8, 1, 13.098511958422721
4, 1, 13.098511958422721
5, 9, 20.768301478900245
0, 11, 22.570543852470085
4, 11, 22.570543852470085
1, 3, 15.090626283432524
2, 10, 21.674702907651554
6, 0, 12.082016120352309
8, 10, 21.674702907651554
10, 1, 13.098511958422721
5, 2, 14.101239534347412
11, 9, 20.768301478900245
7, 9, 20.768301478900245
8, 7, 18.922623499989385
3, 1, 13.098511958422721
0, 7, 18.922623499989385
7, 7, 18.922623499989385
7, 10, 21.674702907651554
3, 0, 12.082016120352309
5, 8, 19.851044441610295
10, 10, 21.674702907651554
5, 3, 15.090626283432524
8, 2, 14.101239534347412
7, 1, 13.098511958422721
0, 8, 19.851044441610295
10, 7, 18.922623499989385
5, 11, 22.570543852470085
6, 7, 18.922623499989385
6, 6, 17.98271637223999
9, 2, 14.101239534347412
10, 0, 12.082016120352309
4, 4, 16.067079151396957
2, 0, 12.082016120352309
2, 7, 18.922623499989385
7, 11, 22.570543852470085
1, 11, 22.570543852470085
3, 4, 16.067079151396957
6, 4, 16.067079151396957
10, 11, 22.570543852470085
1, 4, 16.067079151396957
