132

1, 2, 0.5, 26.961745620916535, 34.80000000000014, [36.600000000000165, 35.50000000000015, 37.90000000000018, 35.50000000000015, 36.700000000000166, 35.00000000000014, 37.00000000000017, 34.80000000000014], 0.0
0, 3, 0.5, 28.00816484072676, 34.80000000000014, [36.600000000000165, 35.50000000000015, 37.90000000000018, 35.50000000000015, 36.700000000000166, 35.00000000000014, 37.00000000000017, 34.80000000000014], 0.0
0, 6, 0.5, 31.066967793692328, 34.80000000000014, [36.600000000000165, 35.50000000000015, 37.90000000000018, 35.50000000000015, 36.700000000000166, 35.00000000000014, 37.00000000000017, 34.80000000000014], 0.0
0, 1, 0.5, 25.901216989865503, 34.80000000000014, [36.600000000000165, 35.50000000000015, 37.90000000000018, 35.50000000000015, 36.700000000000166, 35.00000000000014, 37.00000000000017, 34.80000000000014], 0.0
2, 2, 0.5, 26.96174562092409, 34.80000000000014, [36.600000000000165, 35.50000000000015, 37.90000000000018, 35.50000000000015, 36.700000000000166, 35.00000000000014, 37.00000000000017, 34.80000000000014], 0.0
2, 4, 0.5, 29.040904611539442, 34.80000000000014, [36.600000000000165, 35.50000000000015, 37.90000000000018, 35.50000000000015, 36.700000000000166, 35.00000000000014, 37.00000000000017, 34.80000000000014], 0.0
8, 8, 0.5, 33.0429937830931, 34.80000000000014, [36.600000000000165, 35.50000000000015, 37.90000000000018, 35.50000000000015, 36.700000000000166, 35.00000000000014, 37.00000000000017, 34.80000000000014], 12.128680649540042
10, 4, 0.5, 29.04090461642477, 34.80000000000014, [36.600000000000165, 35.50000000000015, 37.90000000000018, 35.50000000000015, 36.700000000000166, 35.00000000000014, 37.00000000000017, 34.80000000000014], 0.0
1, 6, 0.5, 31.066967322833225, 34.80000000000014, [36.600000000000165, 35.50000000000015, 37.90000000000018, 35.50000000000015, 36.700000000000166, 35.00000000000014, 37.00000000000017, 34.80000000000014], 0.0
11, 6, 0.5, 31.06699603058669, 34.80000000000014, [36.600000000000165, 35.50000000000015, 37.90000000000018, 35.50000000000015, 36.700000000000166, 35.00000000000014, 37.00000000000017, 34.80000000000014], 0.0
8, 9, 0.5, 34.01312542446647, 34.80000000000014, [36.600000000000165, 35.50000000000015, 37.90000000000018, 35.50000000000015, 36.700000000000166, 35.00000000000014, 37.00000000000017, 34.80000000000014], 15.437278550035877
10, 6, 0.5, 31.066967322833175, 34.80000000000014, [36.600000000000165, 35.50000000000015, 37.90000000000018, 35.50000000000015, 36.700000000000166, 35.00000000000014, 37.00000000000017, 34.80000000000014], 0.0
11, 10, 0.5, 34.971775685444804, 35.00000000000014, [36.600000000000165, 35.50000000000015, 37.90000000000018, 35.50000000000015, 36.700000000000166, 35.00000000000014, 37.00000000000017, 34.80000000000014], 16.220722367929593
6, 5, 0.5, 30.060375062246926, 34.80000000000014, [36.600000000000165, 35.50000000000015, 37.90000000000018, 35.50000000000015, 36.700000000000166, 35.00000000000014, 37.00000000000017, 34.80000000000014], 0.0
1, 8, 0.5, 33.04299378308948, 34.80000000000014, [36.600000000000165, 35.50000000000015, 37.90000000000018, 35.50000000000015, 36.700000000000166, 35.00000000000014, 37.00000000000017, 34.80000000000014], 6.15298291327826
9, 4, 0.5, 29.04090460998881, 34.80000000000014, [36.600000000000165, 35.50000000000015, 37.90000000000018, 35.50000000000015, 36.700000000000166, 35.00000000000014, 37.00000000000017, 34.80000000000014], 0.0
8, 11, 0.5, 35.91925622315775, 35.50000000000015, [36.600000000000165, 35.50000000000015, 37.90000000000018, 35.50000000000015, 36.700000000000166, 35.00000000000014, 37.00000000000017, 34.80000000000014], 16.64204304328737
11, 4, 0.5, 29.04094530462513, 34.80000000000014, [36.600000000000165, 35.50000000000015, 37.90000000000018, 35.50000000000015, 36.700000000000166, 35.00000000000014, 37.00000000000017, 34.80000000000014], 0.0
7, 6, 0.5, 31.066967322915527, 34.80000000000014, [36.600000000000165, 35.50000000000015, 37.90000000000018, 35.50000000000015, 36.700000000000166, 35.00000000000014, 37.00000000000017, 34.80000000000014], 0.0
10, 3, 0.5, 28.008164838032634, 34.80000000000014, [36.600000000000165, 35.50000000000015, 37.90000000000018, 35.50000000000015, 36.700000000000166, 35.00000000000014, 37.00000000000017, 34.80000000000014], 0.0
3, 5, 0.5, 30.060375062246926, 34.80000000000014, [36.600000000000165, 35.50000000000015, 37.90000000000018, 35.50000000000015, 36.700000000000166, 35.00000000000014, 37.00000000000017, 34.80000000000014], 0.0
9, 6, 0.5, 31.066967326629197, 34.80000000000014, [36.600000000000165, 35.50000000000015, 37.90000000000018, 35.50000000000015, 36.700000000000166, 35.00000000000014, 37.00000000000017, 34.80000000000014], 0.0
11, 5, 0.5, 30.06037506224693, 34.80000000000014, [36.600000000000165, 35.50000000000015, 37.90000000000018, 35.50000000000015, 36.700000000000166, 35.00000000000014, 37.00000000000017, 34.80000000000014], 0.0
2, 1, 0.5, 25.901216554888315, 34.80000000000014, [36.600000000000165, 35.50000000000015, 37.90000000000018, 35.50000000000015, 36.700000000000166, 35.00000000000014, 37.00000000000017, 34.80000000000014], 0.0
0, 10, 0.5, 34.971775540551135, 35.00000000000014, [36.600000000000165, 35.50000000000015, 37.90000000000018, 35.50000000000015, 36.700000000000166, 35.00000000000014, 37.00000000000017, 34.80000000000014], 26.19840170324754
6, 10, 0.5, 34.97177569339778, 35.50000000000015, [36.80000000000017, 35.50000000000015, 35.60000000000015, 35.50000000000015], 25.133257520387335
0, 2, 0.5, 26.961746005053353, 34.80000000000014, [36.600000000000165, 35.50000000000015, 37.90000000000018, 35.50000000000015, 36.700000000000166, 35.00000000000014, 37.00000000000017, 34.80000000000014], 0.0
2, 3, 0.5, 28.008164838024616, 34.80000000000014, [36.600000000000165, 35.50000000000015, 37.90000000000018, 35.50000000000015, 36.700000000000166, 35.00000000000014, 37.00000000000017, 34.80000000000014], 0.0
4, 2, 0.5, 26.961745623280983, 34.80000000000014, [36.600000000000165, 35.50000000000015, 37.90000000000018, 35.50000000000015, 36.700000000000166, 35.00000000000014, 37.00000000000017, 34.80000000000014], 0.0
8, 6, 0.5, 31.0669673228247, 34.80000000000014, [36.600000000000165, 35.50000000000015, 37.90000000000018, 35.50000000000015, 36.700000000000166, 35.00000000000014, 37.00000000000017, 34.80000000000014], 0.0
5, 6, 0.5, 31.066967322812527, 34.80000000000014, [36.600000000000165, 35.50000000000015, 37.90000000000018, 35.50000000000015, 36.700000000000166, 35.00000000000014, 37.00000000000017, 34.80000000000014], 0.0
5, 10, 0.5, 34.97177569339778, 35.50000000000015, [36.80000000000017, 35.50000000000015, 35.60000000000015, 35.50000000000015], 25.133257520387335
11, 1, 0.5, 25.901216585707576, 34.80000000000014, [36.600000000000165, 35.50000000000015, 37.90000000000018, 35.50000000000015, 36.700000000000166, 35.00000000000014, 37.00000000000017, 34.80000000000014], 0.0
9, 3, 0.5, 28.00816483801987, 34.80000000000014, [36.600000000000165, 35.50000000000015, 37.90000000000018, 35.50000000000015, 36.700000000000166, 35.00000000000014, 37.00000000000017, 34.80000000000014], 0.0
0, 0, 24.778598802181733
0, 4, 0.5, 29.04090489440986, 34.80000000000014, [36.600000000000165, 35.50000000000015, 37.90000000000018, 35.50000000000015, 36.700000000000166, 35.00000000000014, 37.00000000000017, 34.80000000000014], 0.0
8, 5, 0.5, 30.060375062246926, 34.80000000000014, [36.600000000000165, 35.50000000000015, 37.90000000000018, 35.50000000000015, 36.700000000000166, 35.00000000000014, 37.00000000000017, 34.80000000000014], 0.0
2, 6, 0.5, 31.066967322821686, 34.80000000000014, [36.600000000000165, 35.50000000000015, 37.90000000000018, 35.50000000000015, 36.700000000000166, 35.00000000000014, 37.00000000000017, 34.80000000000014], 0.0
6, 1, 0.5, 25.9012165576456, 34.80000000000014, [36.600000000000165, 35.50000000000015, 37.90000000000018, 35.50000000000015, 36.700000000000166, 35.00000000000014, 37.00000000000017, 34.80000000000014], 0.0
1, 5, 0.5, 30.060375062246926, 34.80000000000014, [36.600000000000165, 35.50000000000015, 37.90000000000018, 35.50000000000015, 36.700000000000166, 35.00000000000014, 37.00000000000017, 34.80000000000014], 0.0
6, 9, 0.5, 34.013125424466516, 34.80000000000014, [36.600000000000165, 35.50000000000015, 37.90000000000018, 35.50000000000015, 36.700000000000166, 35.00000000000014, 37.00000000000017, 34.80000000000014], 15.437341042053264
9, 7, 0.5, 32.06105470237326, 34.80000000000014, [36.600000000000165, 35.50000000000015, 37.90000000000018, 35.50000000000015, 36.700000000000166, 35.00000000000014, 37.00000000000017, 34.80000000000014], 10.796212702667987
10, 2, 0.5, 26.961745620980427, 34.80000000000014, [36.600000000000165, 35.50000000000015, 37.90000000000018, 35.50000000000015, 36.700000000000166, 35.00000000000014, 37.00000000000017, 34.80000000000014], 0.0
9, 5, 0.5, 30.060375062246926, 34.80000000000014, [36.600000000000165, 35.50000000000015, 37.90000000000018, 35.50000000000015, 36.700000000000166, 35.00000000000014, 37.00000000000017, 34.80000000000014], 0.0
5, 7, 0.5, 32.06105470237517, 35.50000000000015, [36.80000000000017, 35.50000000000015, 35.60000000000015, 35.50000000000015], 0.0
2, 8, 0.5, 33.04299378309258, 34.80000000000014, [36.600000000000165, 35.50000000000015, 37.90000000000018, 35.50000000000015, 36.700000000000166, 35.00000000000014, 37.00000000000017, 34.80000000000014], 9.759346829292198
7, 2, 0.5, 26.961745620938707, 34.80000000000014, [36.600000000000165, 35.50000000000015, 37.90000000000018, 35.50000000000015, 36.700000000000166, 35.00000000000014, 37.00000000000017, 34.80000000000014], 0.0
11, 2, 0.5, 26.961746050491683, 35.50000000000015, [36.80000000000017, 35.50000000000015, 35.60000000000015, 35.50000000000015], 0.0
1, 9, 0.5, 34.013125424466516, 34.400000000000134, [35.80000000000015, 35.300000000000146, 37.20000000000017, 34.90000000000014, 36.10000000000016, 34.400000000000134, 36.10000000000016, 34.600000000000136, 35.80000000000015, 35.300000000000146, 37.20000000000017, 34.90000000000014, 36.10000000000016, 34.400000000000134, 36.10000000000016, 34.600000000000136], 20.752701915554976
4, 0, 24.778598802181733
11, 8, 0.5, 33.04301080003044, 34.80000000000014, [36.600000000000165, 35.50000000000015, 37.90000000000018, 35.50000000000015, 36.700000000000166, 35.00000000000014, 37.00000000000017, 34.80000000000014], 11.887271453417846
4, 3, 0.5, 28.00816483802183, 34.80000000000014, [36.600000000000165, 35.50000000000015, 37.90000000000018, 35.50000000000015, 36.700000000000166, 35.00000000000014, 37.00000000000017, 34.80000000000014], 0.0
1, 7, 0.5, 32.06105470240299, 34.80000000000014, [36.600000000000165, 35.50000000000015, 37.90000000000018, 35.50000000000015, 36.700000000000166, 35.00000000000014, 37.00000000000017, 34.80000000000014], 2.4188469959963568
0, 5, 0.5, 30.060375062246937, 34.80000000000014, [36.600000000000165, 35.50000000000015, 37.90000000000018, 35.50000000000015, 36.700000000000166, 35.00000000000014, 37.00000000000017, 34.80000000000014], 0.0
3, 10, 0.5, 34.971775693735985, 35.00000000000014, [36.600000000000165, 35.50000000000015, 37.90000000000018, 35.50000000000015, 36.700000000000166, 35.00000000000014, 37.00000000000017, 34.80000000000014], 11.226893068166437
7, 0, 24.778598802181733
5, 0, 24.778598802181733
7, 8, 0.5, 33.042993783089464, 34.80000000000014, [36.600000000000165, 35.50000000000015, 37.90000000000018, 35.50000000000015, 36.700000000000166, 35.00000000000014, 37.00000000000017, 34.80000000000014], 6.152365217426957
7, 4, 0.5, 29.040904610045484, 34.80000000000014, [36.600000000000165, 35.50000000000015, 37.90000000000018, 35.50000000000015, 36.700000000000166, 35.00000000000014, 37.00000000000017, 34.80000000000014], 0.0
4, 9, 0.5, 34.01312542446741, 35.50000000000015, [36.80000000000017, 35.50000000000015, 35.60000000000015, 35.50000000000015], 27.421049432732243
4, 7, 0.5, 32.061054703132136, 34.80000000000014, [36.600000000000165, 35.50000000000015, 37.90000000000018, 35.50000000000015, 36.700000000000166, 35.00000000000014, 37.00000000000017, 34.80000000000014], 0.0
3, 9, 0.5, 34.01312542446741, 34.80000000000014, [36.600000000000165, 35.50000000000015, 37.90000000000018, 35.50000000000015, 36.700000000000166, 35.00000000000014, 37.00000000000017, 34.80000000000014], 19.967128927041053
8, 0, 24.778598802181733
4, 10, 0.5, 34.97177569376981, 35.50000000000015, [36.80000000000017, 35.50000000000015, 35.60000000000015, 35.50000000000015], 6.002554443866816
7, 3, 0.5, 28.00816483801987, 34.80000000000014, [36.600000000000165, 35.50000000000015, 37.90000000000018, 35.50000000000015, 36.700000000000166, 35.00000000000014, 37.00000000000017, 34.80000000000014], 0.0
2, 9, 0.5, 34.01312542446741, 34.80000000000014, [36.600000000000165, 35.50000000000015, 37.90000000000018, 35.50000000000015, 36.700000000000166, 35.00000000000014, 37.00000000000017, 34.80000000000014], 19.967128927041053
9, 0, 24.778598802181733
3, 6, 0.5, 31.066967322815565, 34.80000000000014, [36.600000000000165, 35.50000000000015, 37.90000000000018, 35.50000000000015, 36.700000000000166, 35.00000000000014, 37.00000000000017, 34.80000000000014], 0.0
3, 2, 0.5, 26.961745620938736, 34.80000000000014, [36.600000000000165, 35.50000000000015, 37.90000000000018, 35.50000000000015, 36.700000000000166, 35.00000000000014, 37.00000000000017, 34.80000000000014], 0.0
0, 9, 0.5, 34.013125470440464, 34.80000000000014, [36.600000000000165, 35.50000000000015, 37.90000000000018, 35.50000000000015, 36.700000000000166, 35.00000000000014, 37.00000000000017, 34.80000000000014], 24.55934095134969
6, 8, 0.5, 33.04299378309339, 35.50000000000015, [36.80000000000017, 35.50000000000015, 35.60000000000015, 35.50000000000015], 17.9943311082894
1, 10, 0.5, 34.97177569376952, 35.00000000000014, [36.600000000000165, 35.50000000000015, 37.90000000000018, 35.50000000000015, 36.700000000000166, 35.00000000000014, 37.00000000000017, 34.80000000000014], 26.19744003970745
11, 7, 0.5, 32.061054706615145, 34.80000000000014, [36.600000000000165, 35.50000000000015, 37.90000000000018, 35.50000000000015, 36.700000000000166, 35.00000000000014, 37.00000000000017, 34.80000000000014], 0.0
9, 10, 0.5, 34.97177569339778, 35.00000000000014, [36.600000000000165, 35.50000000000015, 37.90000000000018, 35.50000000000015, 36.700000000000166, 35.00000000000014, 37.00000000000017, 34.80000000000014], 26.199487385561582
11, 3, 0.5, 28.008211642697237, 34.80000000000014, [36.600000000000165, 35.50000000000015, 37.90000000000018, 35.50000000000015, 36.700000000000166, 35.00000000000014, 37.00000000000017, 34.80000000000014], 0.0
9, 8, 0.5, 33.04299378434936, 34.80000000000014, [36.600000000000165, 35.50000000000015, 37.90000000000018, 35.50000000000015, 36.700000000000166, 35.00000000000014, 37.00000000000017, 34.80000000000014], 9.776205189113357
5, 5, 0.5, 30.060375062246926, 34.80000000000014, [36.600000000000165, 35.50000000000015, 37.90000000000018, 35.50000000000015, 36.700000000000166, 35.00000000000014, 37.00000000000017, 34.80000000000014], 0.0
2, 5, 0.5, 30.060375062246926, 34.80000000000014, [36.600000000000165, 35.50000000000015, 37.90000000000018, 35.50000000000015, 36.700000000000166, 35.00000000000014, 37.00000000000017, 34.80000000000014], 0.0
9, 1, 0.5, 25.901216554964147, 34.80000000000014, [36.600000000000165, 35.50000000000015, 37.90000000000018, 35.50000000000015, 36.700000000000166, 35.00000000000014, 37.00000000000017, 34.80000000000014], 0.0
9, 9, 0.5, 34.013125424466516, 34.80000000000014, [36.600000000000165, 35.50000000000015, 37.90000000000018, 35.50000000000015, 36.700000000000166, 35.00000000000014, 37.00000000000017, 34.80000000000014], 15.437341042114207
4, 5, 0.5, 30.060375062246926, 34.80000000000014, [36.600000000000165, 35.50000000000015, 37.90000000000018, 35.50000000000015, 36.700000000000166, 35.00000000000014, 37.00000000000017, 34.80000000000014], 0.0
11, 11, 0.5, 35.9192567278475, 35.50000000000015, [36.600000000000165, 35.50000000000015, 37.90000000000018, 35.50000000000015, 36.700000000000166, 35.00000000000014, 37.00000000000017, 34.80000000000014], 6.9602044753074095
10, 8, 0.5, 33.042993783095625, 34.80000000000014, [36.600000000000165, 35.50000000000015, 37.90000000000018, 35.50000000000015, 36.700000000000166, 35.00000000000014, 37.00000000000017, 34.80000000000014], 6.161012116690118
3, 11, 0.5, 35.919194313203384, 35.50000000000015, [36.600000000000165, 35.50000000000015, 37.90000000000018, 35.50000000000015, 36.700000000000166, 35.00000000000014, 37.00000000000017, 34.80000000000014], 25.209210080681764
6, 2, 0.5, 26.961745620916727, 34.80000000000014, [36.600000000000165, 35.50000000000015, 37.90000000000018, 35.50000000000015, 36.700000000000166, 35.00000000000014, 37.00000000000017, 34.80000000000014], 0.0
4, 8, 0.5, 33.04299378309256, 34.00000000000013, [35.70000000000015, 35.200000000000145, 36.90000000000017, 34.70000000000014, 35.80000000000015, 34.00000000000013, 35.80000000000015, 34.400000000000134, 35.70000000000015, 35.200000000000145, 36.90000000000017, 34.70000000000014, 35.80000000000015, 34.00000000000013, 35.80000000000015, 34.400000000000134], 14.70001470732237
8, 4, 0.5, 29.040904609983215, 34.80000000000014, [36.600000000000165, 35.50000000000015, 37.90000000000018, 35.50000000000015, 36.700000000000166, 35.00000000000014, 37.00000000000017, 34.80000000000014], 0.0
6, 3, 0.5, 28.008164838026453, 34.80000000000014, [36.600000000000165, 35.50000000000015, 37.90000000000018, 35.50000000000015, 36.700000000000166, 35.00000000000014, 37.00000000000017, 34.80000000000014], 0.0
3, 8, 0.5, 33.04299378309262, 34.80000000000014, [36.600000000000165, 35.50000000000015, 37.90000000000018, 35.50000000000015, 36.700000000000166, 35.00000000000014, 37.00000000000017, 34.80000000000014], 27.4994632167165
5, 1, 0.5, 25.901216554888315, 34.80000000000014, [36.600000000000165, 35.50000000000015, 37.90000000000018, 35.50000000000015, 36.700000000000166, 35.00000000000014, 37.00000000000017, 34.80000000000014], 0.0
10, 5, 0.5, 30.060375062246926, 34.80000000000014, [36.600000000000165, 35.50000000000015, 37.90000000000018, 35.50000000000015, 36.700000000000166, 35.00000000000014, 37.00000000000017, 34.80000000000014], 0.0
6, 11, 0.5, 35.91925622315775, 35.50000000000015, [36.600000000000165, 35.50000000000015, 37.90000000000018, 35.50000000000015, 36.700000000000166, 35.00000000000014, 37.00000000000017, 34.80000000000014], 16.64204304328737
2, 11, 0.5, 35.91923804592363, 35.60000000000015, [36.80000000000017, 35.50000000000015, 35.60000000000015, 35.50000000000015], 26.43853227960816
1, 0, 24.778598802181733
4, 6, 0.5, 31.066967322816115, 35.50000000000015, [36.80000000000017, 35.50000000000015, 35.60000000000015, 35.50000000000015], 0.0
1, 1, 0.5, 25.90121655487147, 34.80000000000014, [36.600000000000165, 35.50000000000015, 37.90000000000018, 35.50000000000015, 36.700000000000166, 35.00000000000014, 37.00000000000017, 34.80000000000014], 0.0
5, 4, 0.5, 29.040904609983208, 34.80000000000014, [36.600000000000165, 35.50000000000015, 37.90000000000018, 35.50000000000015, 36.700000000000166, 35.00000000000014, 37.00000000000017, 34.80000000000014], 0.0
9, 11, 0.5, 35.91923804592363, 35.60000000000015, [36.80000000000017, 35.50000000000015, 35.60000000000015, 35.50000000000015], 26.43853227960816
11, 0, 24.778598802181733
8, 3, 0.5, 28.008164840355022, 35.50000000000015, [36.80000000000017, 35.50000000000015, 35.60000000000015, 35.50000000000015], 0.0
10, 9, 0.5, 34.01312542446741, 35.50000000000015, [36.80000000000017, 35.50000000000015, 35.60000000000015, 35.50000000000015], 27.421049432732243
7, 5, 0.5, 30.060375062246926, 34.80000000000014, [36.600000000000165, 35.50000000000015, 37.90000000000018, 35.50000000000015, 36.700000000000166, 35.00000000000014, 37.00000000000017, 34.80000000000014], 0.0
3, 7, 0.5, 32.06105470238157, 34.80000000000014, [36.600000000000165, 35.50000000000015, 37.90000000000018, 35.50000000000015, 36.700000000000166, 35.00000000000014, 37.00000000000017, 34.80000000000014], 4.683079416867083
3, 3, 0.5, 28.008164838038788, 34.80000000000014, [36.600000000000165, 35.50000000000015, 37.90000000000018, 35.50000000000015, 36.700000000000166, 35.00000000000014, 37.00000000000017, 34.80000000000014], 0.0
8, 1, 0.5, 25.901216554894457, 34.80000000000014, [36.600000000000165, 35.50000000000015, 37.90000000000018, 35.50000000000015, 36.700000000000166, 35.00000000000014, 37.00000000000017, 34.80000000000014], 0.0
4, 1, 0.5, 25.901216554869134, 34.10000000000013, [35.70000000000015, 35.200000000000145, 37.00000000000017, 34.70000000000014, 35.80000000000015, 34.10000000000013, 35.80000000000015, 34.500000000000135, 35.70000000000015, 35.200000000000145, 37.00000000000017, 34.70000000000014, 35.80000000000015, 34.10000000000013, 35.80000000000015, 34.500000000000135], 0.0
5, 9, 0.5, 34.01312542445631, 34.80000000000014, [36.600000000000165, 35.50000000000015, 37.90000000000018, 35.50000000000015, 36.700000000000166, 35.00000000000014, 37.00000000000017, 34.80000000000014], 10.974872963060335
0, 11, 0.5, 35.63495513039122, 35.50000000000015, [36.600000000000165, 35.50000000000015, 37.90000000000018, 35.50000000000015, 36.700000000000166, 35.00000000000014, 37.00000000000017, 34.80000000000014], 16.126321136884894
4, 11, 0.5, 35.91923804592363, 35.60000000000015, [36.80000000000017, 35.50000000000015, 35.60000000000015, 35.50000000000015], 26.43853227960816
1, 3, 0.5, 28.008164838019887, 34.80000000000014, [36.600000000000165, 35.50000000000015, 37.90000000000018, 35.50000000000015, 36.700000000000166, 35.00000000000014, 37.00000000000017, 34.80000000000014], 0.0
2, 10, 0.5, 34.97177569374932, 35.00000000000014, [36.600000000000165, 35.50000000000015, 37.90000000000018, 35.50000000000015, 36.700000000000166, 35.00000000000014, 37.00000000000017, 34.80000000000014], 16.2184434729696
6, 0, 24.778598802181733
8, 10, 0.5, 34.971775693769494, 35.00000000000014, [36.600000000000165, 35.50000000000015, 37.90000000000018, 35.50000000000015, 36.700000000000166, 35.00000000000014, 37.00000000000017, 34.80000000000014], 21.208186548093863
10, 1, 0.5, 25.90121655487173, 35.50000000000015, [36.80000000000017, 35.50000000000015, 35.60000000000015, 35.50000000000015], 0.0
5, 2, 0.5, 26.961745620932586, 34.80000000000014, [36.600000000000165, 35.50000000000015, 37.90000000000018, 35.50000000000015, 36.700000000000166, 35.00000000000014, 37.00000000000017, 34.80000000000014], 0.0
11, 9, 0.5, 34.01312542028088, 34.80000000000014, [36.600000000000165, 35.50000000000015, 37.90000000000018, 35.50000000000015, 36.700000000000166, 35.00000000000014, 37.00000000000017, 34.80000000000014], 10.975309271677233
7, 9, 0.5, 34.01312542408994, 34.80000000000014, [36.600000000000165, 35.50000000000015, 37.90000000000018, 35.50000000000015, 36.700000000000166, 35.00000000000014, 37.00000000000017, 34.80000000000014], 19.970732875850015
8, 7, 0.5, 32.061054702372424, 34.80000000000014, [36.600000000000165, 35.50000000000015, 37.90000000000018, 35.50000000000015, 36.700000000000166, 35.00000000000014, 37.00000000000017, 34.80000000000014], 1.6051035199644952
3, 1, 0.5, 25.901216554943943, 34.80000000000014, [36.600000000000165, 35.50000000000015, 37.90000000000018, 35.50000000000015, 36.700000000000166, 35.00000000000014, 37.00000000000017, 34.80000000000014], 0.0
0, 7, 0.5, 32.06105501436918, 34.80000000000014, [36.600000000000165, 35.50000000000015, 37.90000000000018, 35.50000000000015, 36.700000000000166, 35.00000000000014, 37.00000000000017, 34.80000000000014], 0.0
7, 7, 0.5, 32.061054703132136, 34.80000000000014, [36.600000000000165, 35.50000000000015, 37.90000000000018, 35.50000000000015, 36.700000000000166, 35.00000000000014, 37.00000000000017, 34.80000000000014], 0.0
7, 10, 0.5, 34.97177569374927, 35.00000000000014, [36.600000000000165, 35.50000000000015, 37.90000000000018, 35.50000000000015, 36.700000000000166, 35.00000000000014, 37.00000000000017, 34.80000000000014], 16.21849891213917
3, 0, 24.778598802181733
5, 8, 0.5, 33.04299378309258, 34.80000000000014, [36.600000000000165, 35.50000000000015, 37.90000000000018, 35.50000000000015, 36.700000000000166, 35.00000000000014, 37.00000000000017, 34.80000000000014], 9.759346829292198
10, 10, 0.5, 34.97177569376952, 35.50000000000015, [36.80000000000017, 35.50000000000015, 35.60000000000015, 35.50000000000015], 25.133320635477464
5, 3, 0.5, 28.008164838041775, 34.80000000000014, [36.600000000000165, 35.50000000000015, 37.90000000000018, 35.50000000000015, 36.700000000000166, 35.00000000000014, 37.00000000000017, 34.80000000000014], 0.0
8, 2, 0.5, 26.961745620938736, 34.80000000000014, [36.600000000000165, 35.50000000000015, 37.90000000000018, 35.50000000000015, 36.700000000000166, 35.00000000000014, 37.00000000000017, 34.80000000000014], 0.0
7, 1, 0.5, 25.90121655487565, 34.80000000000014, [36.600000000000165, 35.50000000000015, 37.90000000000018, 35.50000000000015, 36.700000000000166, 35.00000000000014, 37.00000000000017, 34.80000000000014], 0.0
0, 8, 0.5, 33.042993938147816, 34.80000000000014, [36.600000000000165, 35.50000000000015, 37.90000000000018, 35.50000000000015, 36.700000000000166, 35.00000000000014, 37.00000000000017, 34.80000000000014], 19.399252009453477
10, 7, 0.5, 32.06105470244074, 34.80000000000014, [36.600000000000165, 35.50000000000015, 37.90000000000018, 35.50000000000015, 36.700000000000166, 35.00000000000014, 37.00000000000017, 34.80000000000014], 0.0
5, 11, 0.5, 35.91923804592363, 35.60000000000015, [36.80000000000017, 35.50000000000015, 35.60000000000015, 35.50000000000015], 26.43853227960816
6, 7, 0.5, 32.061054702378556, 34.80000000000014, [36.600000000000165, 35.50000000000015, 37.90000000000018, 35.50000000000015, 36.700000000000166, 35.00000000000014, 37.00000000000017, 34.80000000000014], 3.829658472043694
6, 6, 0.5, 31.06696732281242, 34.80000000000014, [36.600000000000165, 35.50000000000015, 37.90000000000018, 35.50000000000015, 36.700000000000166, 35.00000000000014, 37.00000000000017, 34.80000000000014], 0.0
9, 2, 0.5, 26.961745620938707, 34.80000000000014, [36.600000000000165, 35.50000000000015, 37.90000000000018, 35.50000000000015, 36.700000000000166, 35.00000000000014, 37.00000000000017, 34.80000000000014], 0.0
10, 0, 24.778598802181733
4, 4, 0.5, 29.040904609992733, 34.80000000000014, [36.600000000000165, 35.50000000000015, 37.90000000000018, 35.50000000000015, 36.700000000000166, 35.00000000000014, 37.00000000000017, 34.80000000000014], 0.0
2, 0, 24.778598802181733
2, 7, 0.5, 32.061054702382734, 34.80000000000014, [36.600000000000165, 35.50000000000015, 37.90000000000018, 35.50000000000015, 36.700000000000166, 35.00000000000014, 37.00000000000017, 34.80000000000014], 0.2038452203544976
7, 11, 0.5, 35.91925622315775, 35.50000000000015, [36.600000000000165, 35.50000000000015, 37.90000000000018, 35.50000000000015, 36.700000000000166, 35.00000000000014, 37.00000000000017, 34.80000000000014], 16.64204304328737
1, 11, 0.5, 35.919194313203384, 35.50000000000015, [36.600000000000165, 35.50000000000015, 37.90000000000018, 35.50000000000015, 36.700000000000166, 35.00000000000014, 37.00000000000017, 34.80000000000014], 25.209210080681764
3, 4, 0.5, 29.040904610045484, 34.80000000000014, [36.600000000000165, 35.50000000000015, 37.90000000000018, 35.50000000000015, 36.700000000000166, 35.00000000000014, 37.00000000000017, 34.80000000000014], 0.0
6, 4, 0.5, 29.040904609985155, 35.50000000000015, [36.80000000000017, 35.50000000000015, 35.60000000000015, 35.50000000000015], 0.0
10, 11, 0.5, 35.91925622315775, 35.50000000000015, [36.600000000000165, 35.50000000000015, 37.90000000000018, 35.50000000000015, 36.700000000000166, 35.00000000000014, 37.00000000000017, 34.80000000000014], 16.64204304328737
1, 4, 0.5, 29.04090461000186, 34.80000000000014, [36.600000000000165, 35.50000000000015, 37.90000000000018, 35.50000000000015, 36.700000000000166, 35.00000000000014, 37.00000000000017, 34.80000000000014], 0.0
